1991-11,1,0
1991-12,0,0
1992-01,0,0
1992-02,0,0
1992-03,0,0
1992-04,0,0
1992-05,0,0
1992-06,0,0
1992-07,0,0
1992-08,0,0
1992-09,2,0
1993-05,3,0
1993-06,1,0
1993-08,1,0
1993-12,1,0
1994-02,1,0
1994-04,1,0
1994-06,1,0
1994-08,1,0
1994-10,1,0
1994-11,5,0
1995-04,1,0
1995-05,1,0
1995-06,2,1
1995-07,1,0
1995-08,1,0
1995-09,0,0
1995-10,0,0
1995-11,1,0
1995-12,2,1
1996-01,1,0
1996-02,1,0
1996-05,2,0
1996-06,2,0
1996-07,3,0
1996-08,5,0
1996-09,1,0
1996-10,5,0
1996-11,1,0
1996-12,1,0
1997-01,3,0
1997-02,1,0
1997-03,1,0
1997-04,1,0
1997-06,2,0
1997-07,2,0
1997-08,4,0
1997-09,2,0
1998-03,3,0
1998-06,1,0
1998-07,1,0
1998-08,1,0
1998-09,2,0
1998-10,1,0
1998-12,1,1
1999-01,1,0
1999-02,1,0
1999-03,2,0
1999-04,2,0
1999-05,3,0
1999-06,4,0
1999-07,2,0
1999-08,1,1
1999-09,2,0
1999-10,2,0
1999-11,2,0
1999-12,3,0
2000-02,1,0
2000-03,1,0
2000-04,3,2
2000-05,1,0
2000-06,1,3
2000-07,1,0
2000-08,2,0
2000-09,1,0
2000-11,2,0
2000-12,2,0
2001-01,1,0
2001-03,4,2
2001-05,2,1
2001-06,4,0
2001-08,1,0
2001-09,2,0
2001-10,1,0
2001-11,3,0
2001-12,2,0
2002-01,2,1
2002-02,0,1
2002-03,3,2
2002-04,1,0
2002-06,1,0
2002-07,1,0
2002-08,2,0
2002-09,2,0
2002-10,1,0
2002-12,2,1
2003-01,1,0
2003-02,0,1
2003-03,1,0
2003-04,2,1
2003-05,1,1
2003-06,1,2
2003-07,3,2
2003-08,2,0
2003-10,1,0
2003-11,5,0
2003-12,2,0
2004-01,2,0
2004-02,1,0
2004-03,4,0
2004-04,1,0
2004-05,3,0
2004-07,0,1
2004-08,1,0
2004-09,1,0
2004-10,1,0
2004-11,1,0
2004-12,1,0
2005-01,2,0
2005-02,5,1
2005-03,1,1
2005-04,2,0
2005-05,1,0
2005-06,1,0
2005-07,1,0
2005-08,2,0
2005-09,1,0
2005-10,2,1
2005-11,2,1
2005-12,2,0
2006-02,2,0
2006-03,1,1
2006-05,1,0
2006-06,0,2
2006-09,0,2
2006-10,2,0
2006-11,1,0
2006-12,1,0
2007-01,0,1
2007-03,1,0
2007-04,2,0
2007-05,1,0
2007-07,1,2
2007-08,0,1
2007-09,0,3
2007-10,1,0
2007-11,0,1
2007-12,0,2
2008-01,1,0
2008-02,1,0
2008-04,2,0
2008-05,2,1
2008-06,2,1
2008-07,0,2
2008-08,5,1
2008-09,1,0
2008-11,0,1
2008-12,1,1
2009-01,4,0
2009-02,3,3
2009-03,2,1
2009-04,2,0
2009-06,3,1
2009-07,0,1
2009-08,1,1
2009-09,3,2
2009-11,1,0
2009-12,3,0
2010-01,2,2
2010-02,1,0
2010-03,3,1
2010-04,2,0
2010-05,2,1
2010-06,1,1
2010-07,0,1
2010-09,2,1
2010-10,1,2
2010-11,0,2
2010-12,3,2
2011-01,0,1
2011-05,2,0
2011-07,0,2
2011-08,1,1
2011-09,1,1
2011-10,2,0
2011-11,1,0
2011-12,0,2
2012-01,2,2
2012-02,0,1
2012-03,1,1
2012-04,6,2
2012-05,1,1
2012-07,1,1
2012-08,0,1
2012-09,1,2
2012-11,1,1
2013-01,1,0
2013-03,0,8
2013-04,1,3
2013-05,1,0
2013-06,0,1
2013-07,0,2
2013-08,0,1
2013-09,0,1
2013-10,2,1
2013-11,1,1
2013-12,0,2
2014-01,3,1
2014-02,1,1
2014-03,2,2
2014-04,1,5
2014-05,2,5
2014-07,1,2
2014-08,0,1
2014-09,1,1
2014-10,0,2
2014-11,0,2
2015-01,0,1
2015-02,0,2
2015-03,0,4
2015-04,0,1
2015-05,0,4
2015-06,0,2
2015-08,0,2
2015-10,2,2
2015-11,0,1
2015-12,0,4
2016-01,0,1
2016-02,0,1
2016-03,0,1
2016-04,2,2
2016-05,3,2
2016-06,1,1
2016-07,1,0
2016-08,0,4
2016-11,1,1
2016-12,0,6
2017-01,0,2
2017-03,0,5
2017-04,0,2
2017-05,2,0
2017-06,1,3
2017-07,0,2
2017-09,0,1
2017-10,0,1
2017-11,0,3
2018-01,0,7
2018-02,0,4
2018-03,0,2
2018-05,0,3
2018-06,0,1
2018-07,1,1
2018-08,2,2
2018-09,0,1
2018-10,0,2
2018-11,0,6
2018-12,0,4
2019-01,0,11
2019-02,0,9
2019-03,0,2
2019-04,1,2
2019-05,1,6
2019-06,0,5
2019-07,0,6
2019-08,0,9
2019-09,1,5
2019-10,0,6
2019-11,0,9
2019-12,0,13
2020-01,0,19
2020-02,0,2
